verilog/Guia_09/Guia_0905.vcd
$date
	Thu Oct 16 11:57:23 2025
$end
$version
	Icarus Verilog
$end
$timescale
	1s
$end
$scope module Guia_0901 $end
$var wire 1 ! clock $end
$upscope $end
$scope module Guia_0901 $end
$var wire 1 " p1 $end
$upscope $end
$scope module Guia_0901 $end
$var reg 1 # p $end
$upscope $end
$scope module Guia_0901 $end
$var wire 1 $ t1 $end
$upscope $end
$enddefinitions $end
#0
$dumpvars
x$
0#
x"
0!
$end
#12
1"
1!
#16
0"
#24
0!
#36
1"
1!
#40
0"
#48
0!
#60
1"
1!
1#
#64
0"
#72
0!
#84
1"
1!
#88
0"
#96
0!
#108
1"
1!
#112
0"
#120
0!
1$
#132
1"
1!
#136
0"
#144
0!
#156
1"
1!
#160
0"
#168
0!
#180
1"
1!
0$
0#
#184
0"
#192
0!
#204
1"
1!
#208
0"
#216
0!
#228
1"
1!
#232
0"
#240
0!
#252
1"
1!
#256
0"
#264
0!
#276
1"
1!
#280
0"
#288
0!
#300
1"
1!
#304
0"
#312
0!
#324
1"
1!
#328
0"
#336
0!
#348
1"
1!
#352
0"
#360
0!
1#
#372
1"
1!
#376
0"
#384
0!
#396
1"
1!
#400
0"
#408
0!
#420
1"
1!
#424
0"
#432
0!
1$
#444
1"
1!
#448
0"
#456
0!
#468
1"
1!
#472
0"
#480
0!
#492
1"
1!
0$
#496
0"
#504
0!
#516
1"
1!
#520
0"
#528
0!
#540
1"
1!
#544
0"
#552
0!
1$
#564
1"
1!
#568
0"
#576
0!
#588
1"
1!
#592
0"
#600
0!
0#
#612
1"
1!
0$
#616
0"
#624
0!
#636
1"
1!
#640
0"
#648
0!
#660
1"
1!
#664
0"
#672
0!
#684
1"
1!
#688
0"
#696
0!
#708
1"
1!
#712
0"
#720
0!
#732
1"
1!
#736
0"
#744
0!
#756
1"
1!
#760
0"
#768
0!
#780
1"
1!
#784
0"
#792
0!
#804
1"
1!
#808
0"
#816
0!
#828
1"
1!
#832
0"
#840
0!
#852
1"
1!
#856
0"
#864
0!
#876
1"
1!
#880
0"
#888
0!
#900
1"
1!
1#
#904
0"
#912
0!
#924
1"
1!
#928
0"
#936
0!
#948
1"
1!
#952
0"
#960
0!
1$
#972
1"
1!
#976
0"
#984
0!
#996
1"
1!
#1000
0"
#1008
0!
#1020
1"
1!
0$
#1024
0"
#1032
0!
#1044
1"
1!
#1048
0"
#1056
0!
#1068
1"
1!
#1072
0"
#1080
0!
1$
#1092
1"
1!
#1096
0"
#1104
0!
#1116
1"
1!
#1120
0"
#1128
0!
#1140
1"
1!
0$
#1144
0"
#1152
0!
#1164
1"
1!
#1168
0"
#1176
0!
#1188
1"
1!
#1192
0"
#1200
0!
1$
#1212
1"
1!
#1216
0"
#1224
0!
#1236
1"
1!
#1240
0"
#1248
0!
#1260
1"
1!
0$
0#
#1264
0"
#1272
0!
#1284
1"
1!
#1288
0"
#1296
0!
#1308
1"
1!
#1312
0"
#1320
0!
#1332
1"
1!
#1336
0"
#1344
0!
#1356
1"
1!
#1360
0"
#1368
0!
#1380
1"
1!
#1384
0"
#1392
0!
#1404
1"
1!
#1408
0"
#1416
0!
#1428
1"
1!
#1432
0"
#1440
0!
#1452
1"
1!
#1456
0"
#1464
0!
#1476
1"
1!
#1480
0"
#1488
0!
#1500
1"
1!
#1504
0"
#1512
0!
#1524
1"
1!
#1528
0"
#1536
0!
#1548
1"
1!
#1552
0"
#1560
0!
#1572
1"
1!
#1576
0"
#1584
0!
#1596
1"
1!
#1600
0"
#1608
0!
#1620
1"
1!
#1624
0"
